---
http_interactions:
- request:
    method: get
    uri: https://api.darwinex.com/darwininfo/2.0/products?page=&per_page=&status=
    body:
      encoding: US-ASCII
      string: ''
    headers:
      Authorization:
      - Bearer abc123
      Accept-Encoding:
      - gzip;q=1.0,deflate;q=0.6,identity;q=0.3
      Accept:
      - "*/*"
      User-Agent:
      - Ruby
  response:
    status:
      code: 200
      message: ''
    headers:
      Date:
      - Sun, 19 Jul 2020 15:12:01 GMT
      Content-Type:
      - application/json
      Transfer-Encoding:
      - chunked
      Connection:
      - keep-alive
      Access-Control-Allow-Origin:
      - "*"
      Access-Control-Allow-Methods:
      - POST,GET
      Access-Control-Allow-Headers:
      - authorization,Access-Control-Allow-Origin,Content-Type,SOAPAction
    body:
      encoding: UTF-8
      string: '{"content":[{"productName":"AAE.4.6","shortName":"AAE","status":"DELETED","migrationDate":0,"validationDate":1491074214598,"resetDate":0,"currency":"USD"},{"productName":"AAE.5.6","shortName":"AAE","status":"ACTIVE","migrationDate":0,"validationDate":1491074214598,"resetDate":0,"currency":"USD"},{"productName":"AAF.4.13","shortName":"AAF","status":"DELETED","migrationDate":0,"validationDate":1491820838390,"resetDate":0,"currency":"USD"},{"productName":"AAG.4.15","shortName":"AAG","status":"DELETED","migrationDate":0,"validationDate":1491163200000,"resetDate":0,"currency":"EUR"},{"productName":"AAJ.4.12","shortName":"AAJ","status":"DELETED","migrationDate":0,"validationDate":1491163200000,"resetDate":0,"currency":"USD"},{"productName":"AAJ.5.12","shortName":"AAJ","status":"ACTIVE","migrationDate":0,"validationDate":1491163200000,"resetDate":0,"currency":"USD"},{"productName":"AAN.4.2","shortName":"AAN","status":"ACTIVE","migrationDate":0,"validationDate":1491163200000,"resetDate":0,"currency":"EUR"},{"productName":"AAN.5.2","shortName":"AAN","status":"ACTIVE","migrationDate":0,"validationDate":1491163200000,"resetDate":0,"currency":"EUR"},{"productName":"AAO.4.7","shortName":"AAO","status":"DELETED","migrationDate":0,"validationDate":1491163200000,"resetDate":0,"currency":"USD"},{"productName":"AAO.5.7","shortName":"AAO","status":"ACTIVE","migrationDate":0,"validationDate":1491163200000,"resetDate":0,"currency":"USD"},{"productName":"AAP.4.12","shortName":"AAP","status":"DELETED","migrationDate":0,"validationDate":1491817584802,"resetDate":0,"currency":"EUR"},{"productName":"AAP.5.12","shortName":"AAP","status":"ACTIVE","migrationDate":0,"validationDate":1491817584802,"resetDate":0,"currency":"EUR"},{"productName":"AAQ.4.22","shortName":"AAQ","status":"DELETED","migrationDate":1491697851000,"validationDate":1492504180730,"resetDate":0,"currency":"USD"},{"productName":"AAS.4.12","shortName":"AAS","status":"DELETED","migrationDate":0,"validationDate":1494235491373,"resetDate":0,"currency":"EUR"},{"productName":"AAU.4.23","shortName":"AAU","status":"DELETED","migrationDate":1475973033000,"validationDate":1491163200000,"resetDate":0,"currency":"USD"},{"productName":"AAY.4.5","shortName":"AAY","status":"DELETED","migrationDate":0,"validationDate":1491163200000,"resetDate":0,"currency":"USD"},{"productName":"AAY.5.5","shortName":"AAY","status":"ACTIVE","migrationDate":0,"validationDate":1491163200000,"resetDate":0,"currency":"USD"},{"productName":"ABF.4.4","shortName":"ABF","status":"ACTIVE","migrationDate":0,"validationDate":1494235542733,"resetDate":0,"currency":"EUR"},{"productName":"ABF.5.4","shortName":"ABF","status":"ACTIVE","migrationDate":0,"validationDate":1494235542733,"resetDate":0,"currency":"EUR"},{"productName":"ABH.4.21","shortName":"ABH","status":"ACTIVE","migrationDate":1499560262000,"validationDate":1500297536616,"resetDate":0,"currency":"USD"},{"productName":"ABH.5.21","shortName":"ABH","status":"ACTIVE","migrationDate":1499560262000,"validationDate":1500297536616,"resetDate":0,"currency":"USD"},{"productName":"ABJ.4.14","shortName":"ABJ","status":"DELETED","migrationDate":0,"validationDate":1496656543025,"resetDate":0,"currency":"EUR"},{"productName":"ABK.4.19","shortName":"ABK","status":"DELETED","migrationDate":0,"validationDate":1502719270616,"resetDate":0,"currency":"EUR"},{"productName":"ABK.5.19","shortName":"ABK","status":"ACTIVE","migrationDate":0,"validationDate":1502719270616,"resetDate":0,"currency":"EUR"},{"productName":"ABM.4.9","shortName":"ABM","status":"DELETED","migrationDate":0,"validationDate":1508751116158,"resetDate":0,"currency":"USD"},{"productName":"ABN.4.6","shortName":"ABN","status":"ACTIVE","migrationDate":0,"validationDate":1511779606914,"resetDate":0,"currency":"EUR"},{"productName":"ABN.5.6","shortName":"ABN","status":"ACTIVE","migrationDate":0,"validationDate":1511779606914,"resetDate":0,"currency":"EUR"},{"productName":"ABO.4.1","shortName":"ABO","status":"DELETED","migrationDate":0,"validationDate":1491163200000,"resetDate":0,"currency":"USD"},{"productName":"ABO.5.1","shortName":"ABO","status":"ACTIVE","migrationDate":0,"validationDate":1491163200000,"resetDate":0,"currency":"USD"},{"productName":"ABP.4.17","shortName":"ABP","status":"DELETED","migrationDate":1500165029000,"validationDate":1500896845659,"resetDate":0,"currency":"USD"},{"productName":"ABP.5.17","shortName":"ABP","status":"ACTIVE","migrationDate":1500165029000,"validationDate":1500896845659,"resetDate":0,"currency":"USD"},{"productName":"ABT.4.3","shortName":"ABT","status":"DELETED","migrationDate":0,"validationDate":1497868739729,"resetDate":0,"currency":"EUR"},{"productName":"ABT.5.3","shortName":"ABT","status":"ACTIVE","migrationDate":0,"validationDate":1497868739729,"resetDate":0,"currency":"EUR"},{"productName":"ABX.4.21","shortName":"ABX","status":"DELETED","migrationDate":0,"validationDate":1500886663783,"resetDate":0,"currency":"USD"},{"productName":"ACB.4.22","shortName":"ACB","status":"DELETED","migrationDate":0,"validationDate":1520242907747,"resetDate":0,"currency":"EUR"},{"productName":"ACB.5.22","shortName":"ACB","status":"ACTIVE","migrationDate":0,"validationDate":1520242907747,"resetDate":0,"currency":"EUR"},{"productName":"ACE.4.1","shortName":"ACE","status":"ACTIVE","migrationDate":0,"validationDate":1491058173393,"resetDate":0,"currency":"USD"},{"productName":"ACE.5.1","shortName":"ACE","status":"ACTIVE","migrationDate":0,"validationDate":1491058173393,"resetDate":0,"currency":"USD"},{"productName":"ACG.4.7","shortName":"ACG","status":"DELETED","migrationDate":0,"validationDate":1527503604551,"resetDate":0,"currency":"EUR"},{"productName":"ACG.5.7","shortName":"ACG","status":"ACTIVE","migrationDate":0,"validationDate":1527503604551,"resetDate":0,"currency":"EUR"},{"productName":"ACH.4.6","shortName":"ACH","status":"DELETED","migrationDate":0,"validationDate":1491072588807,"resetDate":0,"currency":"USD"},{"productName":"ACH.5.6","shortName":"ACH","status":"ACTIVE","migrationDate":0,"validationDate":1491072588807,"resetDate":0,"currency":"USD"},{"productName":"ACM.4.7","shortName":"ACM","status":"DELETED","migrationDate":0,"validationDate":1511175473638,"resetDate":0,"currency":"EUR"},{"productName":"ACM.5.7","shortName":"ACM","status":"ACTIVE","migrationDate":0,"validationDate":1511175473638,"resetDate":0,"currency":"EUR"},{"productName":"ACN.4.6","shortName":"ACN","status":"DELETED","migrationDate":0,"validationDate":1501491207975,"resetDate":0,"currency":"EUR"},{"productName":"ACN.5.6","shortName":"ACN","status":"ACTIVE","migrationDate":0,"validationDate":1501491207975,"resetDate":0,"currency":"EUR"},{"productName":"ACQ.4.1","shortName":"ACQ","status":"DELETED","migrationDate":0,"validationDate":1516020258394,"resetDate":0,"currency":"USD"},{"productName":"ACR.4.12","shortName":"ACR","status":"DELETED","migrationDate":0,"validationDate":1519036820808,"resetDate":0,"currency":"EUR"},{"productName":"ACR.5.12","shortName":"ACR","status":"ACTIVE","migrationDate":0,"validationDate":1519036820808,"resetDate":0,"currency":"EUR"},{"productName":"ACS.4.6","shortName":"ACS","status":"DELETED","migrationDate":0,"validationDate":1520855974029,"resetDate":0,"currency":"EUR"}],"pageable":{"sort":{"sorted":false,"unsorted":true,"empty":true},"offset":0,"pageNumber":0,"pageSize":50,"unpaged":false,"paged":true},"last":false,"totalPages":260,"totalElements":12967,"size":50,"number":0,"sort":{"sorted":false,"unsorted":true,"empty":true},"numberOfElements":50,"first":true,"empty":false}'
  recorded_at: Sun, 19 Jul 2020 15:12:01 GMT
recorded_with: VCR 6.0.0
